^C:\USERS\АНДРЕЙ\DESKTOP\НОВАЯ ПАПКА (5)\C++6\C++6.CPP
C:\USERS\Андрей\DESKTOP\Новая папка (5)\C++6\X64\DEBUG\VC143.PDB
C:\USERS\Андрей\DESKTOP\Новая папка (5)\C++6\X64\DEBUG\VC143.IDB
C:\USERS\Андрей\DESKTOP\Новая папка (5)\C++6\X64\DEBUG\C++6.OBJ
